Stats 506, F20, Problem Set 2
…
Figure 5. Proportion of the most used television by Census Division in 2009.

## # A tibble: 60 x 6
## # Groups:   division [10]
##    division        tv_type        prop_type      se     lwr    upr
##    <fct>           <fct>              <dbl>   <dbl>   <dbl>  <dbl>
##  1 New England     LCD              0.468   0.0115  0.445   0.490 
##  2 New England     Plasma           0.399   0.0165  0.367   0.431 
##  3 New England     LED              0.0727  0.00924 0.0545  0.0908
##  4 New England     Projection       0.0282  0.00573 0.0170  0.0394
##  5 New England     Standard tube    0.00643 0.00211 0.00230 0.0106
##  6 New England     Not applicable   0.0261  0.00570 0.0149  0.0372
##  7 Middle Atlantic LCD              0.430   0.0111  0.408   0.451 
##  8 Middle Atlantic Plasma           0.435   0.0165  0.403   0.468 
##  9 Middle Atlantic LED              0.0846  0.0102  0.0646  0.105 
## 10 Middle Atlantic Projection       0.0289  0.00588 0.0173  0.0404
## #  with 50 more rows
…
Figure 7. Proportion of the most used television by Census Division in 2015.

## # A tibble: 60 x 6
## # Groups:   division [10]
##    division        tv_type        prop_type      se    lwr    upr
##    <fct>           <fct>              <dbl>   <dbl>  <dbl>  <dbl>
##  1 New England     LCD              0.420   0.0240  0.373  0.467 
##  2 New England     Plasma           0.122   0.0172  0.0882 0.156 
##  3 New England     LED              0.315   0.0458  0.226  0.405 
##  4 New England     Projection       0.00991 0.00632 0      0.0223
##  5 New England     Standard tube    0.0857  0.0192  0.0481 0.123 
##  6 New England     Not applicable   0.0469  0.0161  0.0153 0.0785
##  7 Middle Atlantic LCD              0.380   0.0164  0.348  0.413 
##  8 Middle Atlantic Plasma           0.131   0.0123  0.107  0.155 
##  9 Middle Atlantic LED              0.325   0.0181  0.289  0.361 
## 10 Middle Atlantic Projection       0.0330  0.0113  0.0109 0.0551
## #  with 50 more rows
…
Figure 11. Change in the mean number of televisions by Census Division from 2009 to 2015.*

## # A tibble: 60 x 5
## # Groups:   division [10]
##    division        tv_type             dif     lwr      upr
##    <fct>           <fct>             <dbl>   <dbl>    <dbl>
##  1 New England     LCD            -0.0475  -0.0997  0.00459
##  2 New England     Plasma         -0.277   -0.324  -0.230  
##  3 New England     LED             0.243    0.151   0.334  
##  4 New England     Projection     -0.0183  -0.0350 -0.00158
##  5 New England     Standard tube   0.0793   0.0415  0.117  
##  6 New England     Not applicable  0.0208  -0.0127  0.0544 
##  7 Middle Atlantic LCD            -0.0493  -0.0881 -0.0105 
##  8 Middle Atlantic Plasma         -0.304   -0.344  -0.264  
##  9 Middle Atlantic LED             0.240    0.200   0.281  
## 10 Middle Atlantic Projection      0.00413 -0.0208  0.0290 
## #  with 50 more rows
…
