pic
…
## # A tibble: 60 x 5
## # Groups:   division [10]
##    division        tv_type             dif      lwr     upr
##    <fct>           <fct>             <dbl>    <dbl>   <dbl>
##  1 New England     LCD             0.0475  -0.00459  0.0997
##  2 New England     Plasma          0.277    0.230    0.324 
##  3 New England     LED            -0.243   -0.334   -0.151 
##  4 New England     Projection      0.0183   0.00158  0.0350
##  5 New England     Standard tube  -0.0793  -0.117   -0.0415
##  6 New England     Not applicable -0.0208  -0.0544   0.0127
##  7 Middle Atlantic LCD             0.0493   0.0105   0.0881
##  8 Middle Atlantic Plasma          0.304    0.264    0.344 
##  9 Middle Atlantic LED            -0.240   -0.281   -0.200 
## 10 Middle Atlantic Projection     -0.00413 -0.0290   0.0208
## #  with 50 more rows
…
